…
Start sampling
Fitting model 7 out of 10
Start sampling
Fitting model 8 out of 10
Start sampling
Fitting model 9 out of 10
Start sampling
Fitting model 10 out of 10
Start sampling
[1] "kfold predicting"
rename: renamed one variable (DrawNum)
pivot_longer: reorganized (1, 2, 3, 4, 5, …) into (ItemClassID, Predicted) [was 4000x661, now 2640000x3]
rename: renamed 2 variables (ItemClassID, GroundTruth)
[1] "PREDS:"
# A tibble: 2,640,000 × 3
   DrawNum ItemClassID Predicted
   <chr>   <chr>           <int>
 1 1       1                   0
 2 1       2                   0
 3 1       3                   0
 4 1       4                   1
 5 1       5                   1
 6 1       6                   1
 7 1       7                   1
 8 1       8                   0
 9 1       9                   1
10 1       10                  0
# ℹ 2,639,990 more rows
…
